1223332233332222323322333222232222332233332222332233321
2033233332222232232233232232322323223223233223222223230
1222222332333232322233222222323223232232323222233322220
3122332233322322222333232232223223332222322323223333321
0322222322222332233232232322222233332232332332233233220
0322222323223232232232232232232332222222332332332332231
2032222222233233223333322322333322332232222232323232220
2032222222322322222322233323222322222333323223333322221
0323233223222332322323222323333322233332232223332232230
2203232332323322232333223222323332233323322233222222221
3123232323222323222222322223332332332222233332222223321
1232232232333232223232222323232222222323323323232322230
0333222233223233323223222233323222333223332223222333330
1233323223233322333222322222222322232222233232322332231
0322322332333232232322322222222232323232233223333233230
0333223233233222223323222223223322332232232332222232221
0332223233332223232323332233332222223232232322332322230
1223233222322222232222333232222222322233223322333222221
2203222233232223323232223232233223232323232222233233320
1232323223332322232332222232222222323223233322333333321
1222232223222333332322222233222222333223232323223322231
1223232323233332323223223222222333222222323323222332230
2222222032222332333323323232233333232223233323233323231
0332222232233233223223232223322323232223323322222332221
1222322333233222333322322223222323232332233222222222230
0333333322322233323232332332232222222232322223223322330
2033222333222332323222222223222233332322232223322233231
0323223232233322232233323322322322233233232322222332220
1232223333223232223233222232223222223223233322323322331
2203322322223222223233223332233322322322232232222322320
2203232323233222222233223332222323332233233223332223330
2033322333322222323323322232233333322333323222332223321
0332222322222323232323232322322333233322332232223222320
1223222232232322333233232333233332322233223222223323330
3123222333232322232322223332333333332233232322323232321
1222222323233222222322232232332322322323322223222233320
2222203333322232323322233322322233332232222333222223220
0332223322233223222233232233232233223333333333223332231
3312332223223322323333232322322222332233222332223222321
1232332323333322232222332222322322233323323322323233221
0323332222332232323222232223232222233222322222223222331
1222223223233322232223223233322332233222232222223322221
0323333233233323222323332232323232223332233323332233220
3331233222232322223332223323233222233332333323322233231
0332223232222233333223222332222223323233232323222222321
2220332223223232322322333332233333333232222322332232321
0333323323222322223322232222333332222333222323233222321
0332323223233333223323233232223323222222323332322332221
2203223232332223233223323233233223333322223222222223220
1233232223333332323323333322223223232322333222232223320
3122222233223223323233232223323223222233332222223222220
1223222232323232322223332332233223323323223323232322231
2032223233333232223223333322333223323222322223322223321
0332322232322222222333322233323333232232323332323222231
1223323322322322222322323332232222222332323322333232330
